miserable uncertainty - Group work and peer-marking system with R: part 1
…
    chisq.test, fisher.test

library(readxl)
library(writexl)

Assigning students to teams

Firstly, we load the list of students and their IDs, alongside information to which group they are assigned (teams must be created within each group). Depending on how your list of students is generated, some tidying up may be required here. In this example, I have two groups of students (I am using the names of characters of the Grishaverse novels by Leigh Bardugo) and the file is already tidy.

# List of groups and teams is provided in an Excel file
groups <- read_xlsx(here("posts", "Groups and peer marking system in R part 1", "groups_example.xlsx"))

groups

# A tibble: 23 × 3
   student_name     student_number group 
   <chr>                     <dbl> <chr> 
 1 Alina Starkov             11110 group1
 2 Nikolai Lantsov           22220 group1
 3 Zoya Nazyalensky          33330 group1
 4 Malyen Oretsev            44440 group1
 5 Genya Safin               55550 group1
 6 David Kostyk              66660 group1
 7 Adrik Zhabin              77770 group1
 8 Hanne Brum                88880 group1
 9 Isaak Andreyev            99990 group1
10 Mayu Kir-Kaat            121212 group1
# ℹ 13 more rows
…
Warning: There was 1 warning in `mutate()`.
ℹ In argument: `teams = map2(data, no_of_teams, split2Teams)`.
Caused by warning in `split.default()`:
! data length is not a multiple of split variable

teams_ready

# A tibble: 23 × 4
   group  student_name     student_number team_name
   <chr>  <chr>                     <dbl> <chr>    
 1 group1 Malyen Oretsev            44440 Os Alta  
 2 group1 Mayu Kir-Kaat            121212 Os Alta  
 3 group1 Alina Starkov             11110 Os Alta  
 4 group1 Nikolai Lantsov           22220 Os Alta  
 5 group1 Adrik Zhabin              77770 Os Alta  
 6 group1 Zoya Nazyalensky          33330 Fjerda   
 7 group1 Genya Safin               55550 Fjerda   
 8 group1 David Kostyk              66660 Fjerda   
 9 group1 Hanne Brum                88880 Fjerda   
10 group1 Isaak Andreyev            99990 Fjerda   
# ℹ 13 more rows
…
